,Australia/Sydney,UTC +11:00
,Australia/Adelaide,UTC +10:30
,Australia/Brisbane,UTC +10:00
,Australia/Darwin,UTC +09:30
,Australia/Perth,UTC +08:00
,Europe/London,UTC + 00:00
,America/New_York,UTC -05:00
,America/Chicago,UTC -06:00
,America/Denver,UTC -07:00
,America/Los_Angeles,UTC -08:00
,America/Anchorage,UTC -09:00
,America/Adak,UTC -10:00